---
http_interactions:
- request:
    method: get
    uri: https://api.bestbuy.com/v1/stores(area(90035,25))?apiKey=qy8vdpfcgsxtfw657mnbu7nc&format=json&pageSize=15&show=longName,city,distance,phone,storeType,storeId
    body:
      encoding: US-ASCII
      string: ''
    headers:
      User-Agent:
      - Faraday v0.9.2
      Accept-Encoding:
      - gzip;q=1.0,deflate;q=0.6,identity;q=0.3
      Accept:
      - "*/*"
  response:
    status:
      code: 200
      message: OK
    headers:
      Content-Type:
      - application/json; charset=UTF-8
      Date:
      - Tue, 14 Jun 2016 17:49:52 GMT
      Server:
      - thin 1.6.1 codename Death Proof
      X-Mashery-Responder:
      - prod-j-worker-us-east-1d-119.mashery.com
      Content-Length:
      - '3707'
      Connection:
      - keep-alive
    body:
      encoding: UTF-8
      string: |-
        {
          "from": 1,
          "to": 15,
          "total": 39,
          "currentPage": 1,
          "totalPages": 3,
          "queryTime": "0.008",
          "totalTime": "0.035",
          "partial": false,
          "canonicalUrl": "/v1/stores(area(\"90035\",25))?show=longName,city,distance,phone,storeType,storeId&format=json&apiKey=qy8vdpfcgsxtfw657mnbu7nc",
          "stores": [
            {
              "longName": "Best Buy - Culver City",
              "city": "Culver City",
              "distance": 2.79,
              "phone": "310-204-2147",
              "storeType": "BigBox",
              "storeId": 179
            },
            {
              "longName": "Best Buy - West LA",
              "city": "Los Angeles",
              "distance": 3.36,
              "phone": "310-268-9190",
              "storeType": "BigBox",
              "storeId": 109
            },
            {
              "longName": "Best Buy - West Hollywood",
              "city": "W Hollywood",
              "distance": 3.43,
              "phone": "323-883-0219",
              "storeType": "BigBox",
              "storeId": 393
            },
            {
              "longName": "Hollywood & HIghland 2nd floor against wall, across from Hot Topic",
              "city": "Hollywood",
              "distance": 4.3,
              "phone": "877-415-3487",
              "storeType": "Express",
              "storeId": 8900
            },
            {
              "longName": "Best Buy - Culver City Westfield Mall",
              "city": "Culver City",
              "distance": 4.61,
              "phone": "310-636-1299",
              "storeType": "BigBox",
              "storeId": 1510
            },
            {
              "longName": "LAX - Los Angeles International Airport Terminal 7 Gate 70A",
              "city": "Los Angeles",
              "distance": 7.46,
              "phone": "877-415-3487",
              "storeType": "Express",
              "storeId": 8013
            },
            {
              "longName": "LAX - Los Angeles International Airport Terminal 3 Rotunda",
              "city": "Los Angeles",
              "distance": 7.46,
              "phone": "877-415-3487",
              "storeType": "Express",
              "storeId": 8035
            },
            {
              "longName": "LAX - Los Angeles International Airport Terminal 7 Gate 74",
              "city": "Los Angeles",
              "distance": 7.46,
              "phone": "877-415-3487",
              "storeType": "Express",
              "storeId": 8012
            },
            {
              "longName": "LAX - Los Angeles International Airport Terminal 3 near Gate 30",
              "city": "Los Angeles",
              "distance": 7.46,
              "phone": "877-415-3487",
              "storeType": "Express",
              "storeId": 8056
            },
            {
              "longName": "LAX - Los Angeles International Airport Terminal 4 Gate 45",
              "city": "Los Angeles",
              "distance": 7.46,
              "phone": "877-415-3487",
              "storeType": "Express",
              "storeId": 8034
            },
            {
              "longName": "LAX - Los Angeles International Airport Terminal 1 by Gate 6",
              "city": "Los Angeles",
              "distance": 7.46,
              "phone": "877-415-3487",
              "storeType": "Express",
              "storeId": 8073
            },
            {
              "longName": "LAX - Los Angeles International Airport Terminal 5 Gate 50B",
              "city": "Los Angeles",
              "distance": 7.46,
              "phone": "877-415-3487",
              "storeType": "Express",
              "storeId": 8103
            },
            {
              "longName": "LAX - Los Angeles International Airport American Eagle Terminal by Restrooms",
              "city": "Los Angeles",
              "distance": 7.46,
              "phone": "877-415-3487",
              "storeType": "Express",
              "storeId": 8135
            },
            {
              "longName": "LAX - Los Angeles International Airport Terminal 4 Gate 41",
              "city": "Los Angeles",
              "distance": 7.46,
              "phone": "877-415-3487",
              "storeType": "Express",
              "storeId": 8055
            },
            {
              "longName": "LAX - Los Angeles International Airport Terminal 8 by Gate 81",
              "city": "Los Angeles",
              "distance": 7.46,
              "phone": "877-415-3487",
              "storeType": "Express",
              "storeId": 8071
            }
          ],
          "warnings": "Distances are in terms of miles (default)"
        }
    http_version: 
  recorded_at: Tue, 14 Jun 2016 17:49:53 GMT
recorded_with: VCR 3.0.3
